<?xml version="1.0" encoding="UTF-8" standalone="no"?>
<!-- Created with Inkscape (http://www.inkscape.org/) -->

<svg
   xmlns:dc="http://purl.org/dc/elements/1.1/"
   xmlns:cc="http://creativecommons.org/ns#"
   xmlns:rdf="http://www.w3.org/1999/02/22-rdf-syntax-ns#"
   xmlns:svg="http://www.w3.org/2000/svg"
   xmlns="http://www.w3.org/2000/svg"
   xmlns:sodipodi="http://sodipodi.sourceforge.net/DTD/sodipodi-0.dtd"
   xmlns:inkscape="http://www.inkscape.org/namespaces/inkscape"
   width="200"
   height="200"
   id="svg2"
   version="1.1"
   inkscape:version="0.48.3.1 r9886"
   sodipodi:docname="create_1.svg">
  <defs
     id="defs4">
    <linearGradient
       id="linearGradient3787">
      <stop
         style="stop-color:#fffc00;stop-opacity:1;"
         offset="0"
         id="stop3789" />
      <stop
         style="stop-color:#fffc00;stop-opacity:0;"
         offset="1"
         id="stop3791" />
    </linearGradient>
    <filter
       id="filter4399"
       inkscape:label="3D marble"
       inkscape:menu="Materials"
       inkscape:menu-tooltip="3D warped marble texture"
       height="1.5"
       y="-0.25"
       width="1.5"
       x="-0.25"
       color-interpolation-filters="sRGB">
      <feGaussianBlur
         id="feGaussianBlur4401"
         stdDeviation="4"
         result="result8" />
      <feTurbulence
         id="feTurbulence4403"
         seed="50"
         result="result7"
         type="turbulence"
         numOctaves="7"
         baseFrequency="0.01 0.01" />
      <feColorMatrix
         id="feColorMatrix4405"
         result="result5"
         values="1 0 0 0 0 0 1 0 0 0 0 0 1 0 0 0 0 0 1.4 0 " />
      <feComposite
         id="feComposite4407"
         in2="result8"
         result="result6"
         in="result5"
         operator="in" />
      <feDisplacementMap
         id="feDisplacementMap4409"
         in2="result6"
         in="result5"
         xChannelSelector="A"
         yChannelSelector="A"
         scale="100"
         result="result4" />
      <feFlood
         id="feFlood4411"
         in="result4"
         flood-opacity="1"
         flood-color="rgb(224,224,224)"
         result="result9" />
      <feComposite
         id="feComposite4413"
         in2="result4"
         result="result2"
         operator="atop" />
      <feComposite
         id="feComposite4415"
         in2="SourceGraphic"
         in="result2"
         operator="atop"
         result="result9" />
      <feBlend
         id="feBlend4417"
         in2="result9"
         result="fbSourceGraphic"
         mode="darken" />
      <feGaussianBlur
         id="feGaussianBlur4419"
         stdDeviation="5"
         in="fbSourceGraphic"
         result="result0" />
      <feSpecularLighting
         id="feSpecularLighting4421"
         in="result0"
         result="result1"
         lighting-color="#ffffff"
         surfaceScale="8"
         specularConstant="0.80000001"
         specularExponent="30">
        <feDistantLight
           id="feDistantLight4423"
           elevation="55"
           azimuth="235" />
      </feSpecularLighting>
      <feComposite
         id="feComposite4425"
         in2="fbSourceGraphic"
         in="result1"
         result="result2"
         operator="in" />
      <feComposite
         id="feComposite4427"
         in2="result2"
         in="fbSourceGraphic"
         result="result4"
         operator="arithmetic"
         k2="1"
         k3="1"
         k1="0"
         k4="0" />
    </filter>
    <filter
       id="filter4429"
       inkscape:label="3D marble"
       inkscape:menu="Materials"
       inkscape:menu-tooltip="3D warped marble texture"
       height="1.5"
       y="-0.25"
       width="1.5"
       x="-0.25"
       color-interpolation-filters="sRGB">
      <feGaussianBlur
         id="feGaussianBlur4431"
         stdDeviation="4"
         result="result8" />
      <feTurbulence
         id="feTurbulence4433"
         seed="50"
         result="result7"
         type="turbulence"
         numOctaves="7"
         baseFrequency="0.01 0.01" />
      <feColorMatrix
         id="feColorMatrix4435"
         result="result5"
         values="1 0 0 0 0 0 1 0 0 0 0 0 1 0 0 0 0 0 1.4 0 " />
      <feComposite
         id="feComposite4437"
         in2="result8"
         result="result6"
         in="result5"
         operator="in" />
      <feDisplacementMap
         id="feDisplacementMap4439"
         in2="result6"
         in="result5"
         xChannelSelector="A"
         yChannelSelector="A"
         scale="100"
         result="result4" />
      <feFlood
         id="feFlood4441"
         in="result4"
         flood-opacity="1"
         flood-color="rgb(224,224,224)"
         result="result9" />
      <feComposite
         id="feComposite4443"
         in2="result4"
         result="result2"
         operator="atop" />
      <feComposite
         id="feComposite4445"
         in2="SourceGraphic"
         in="result2"
         operator="atop"
         result="result9" />
      <feBlend
         id="feBlend4447"
         in2="result9"
         result="fbSourceGraphic"
         mode="darken" />
      <feGaussianBlur
         id="feGaussianBlur4449"
         stdDeviation="5"
         in="fbSourceGraphic"
         result="result0" />
      <feSpecularLighting
         id="feSpecularLighting4451"
         in="result0"
         result="result1"
         lighting-color="#ffffff"
         surfaceScale="8"
         specularConstant="0.80000001"
         specularExponent="30">
        <feDistantLight
           id="feDistantLight4453"
           elevation="55"
           azimuth="235" />
      </feSpecularLighting>
      <feComposite
         id="feComposite4455"
         in2="fbSourceGraphic"
         in="result1"
         result="result2"
         operator="in" />
      <feComposite
         id="feComposite4457"
         in2="result2"
         in="fbSourceGraphic"
         result="result4"
         operator="arithmetic"
         k2="1"
         k3="1"
         k1="0"
         k4="0" />
    </filter>
    <filter
       id="filter4619"
       inkscape:label="Inner Glow"
       inkscape:menu="Shadows and Glows"
       inkscape:menu-tooltip="Adds a colorizable glow inside"
       color-interpolation-filters="sRGB">
      <feGaussianBlur
         id="feGaussianBlur4621"
         stdDeviation="10"
         result="result8" />
      <feComposite
         id="feComposite4623"
         in2="result8"
         result="result6"
         in="SourceGraphic"
         operator="in" />
      <feComposite
         id="feComposite4625"
         in2="result6"
         operator="in"
         result="result11" />
      <feFlood
         id="feFlood4627"
         result="result10"
         in="result11"
         flood-opacity="1"
         flood-color="rgb(255,222,85)" />
      <feBlend
         id="feBlend4629"
         in2="result10"
         mode="normal"
         in="result11"
         result="result12" />
      <feComposite
         id="feComposite4631"
         in2="SourceGraphic"
         result="result2"
         operator="in"
         in="result12" />
    </filter>
    <filter
       id="filter5737"
       inkscape:menu-tooltip="In and out glow with a possible offset and colorizable flood"
       inkscape:menu="Shadows and Glows"
       inkscape:label="Cutout Glow"
       color-interpolation-filters="sRGB">
      <feOffset
         id="feOffset5739"
         dy="3"
         dx="3" />
      <feGaussianBlur
         id="feGaussianBlur5741"
         result="result8"
         stdDeviation="3" />
      <feFlood
         id="feFlood5743"
         flood-color="rgb(0,0,0)"
         flood-opacity="1"
         in="result8"
         result="result10" />
      <feComposite
         id="feComposite5745"
         in2="SourceGraphic"
         operator="in"
         in="result10"
         result="result9" />
      <feBlend
         id="feBlend5747"
         in2="result9"
         mode="normal"
         in="result8" />
    </filter>
    <filter
       inkscape:collect="always"
       id="filter5815">
      <feGaussianBlur
         inkscape:collect="always"
         stdDeviation="1.1123545"
         id="feGaussianBlur5817" />
    </filter>
  </defs>
  <sodipodi:namedview
     id="base"
     pagecolor="#ffffff"
     bordercolor="#666666"
     borderopacity="1.0"
     inkscape:pageopacity="0.0"
     inkscape:pageshadow="2"
     inkscape:zoom="2.8"
     inkscape:cx="124.31034"
     inkscape:cy="98.54141"
     inkscape:document-units="px"
     inkscape:current-layer="layer1"
     showgrid="true"
     inkscape:window-width="967"
     inkscape:window-height="799"
     inkscape:window-x="301"
     inkscape:window-y="65"
     inkscape:window-maximized="0"
     inkscape:snap-global="false">
    <inkscape:grid
       type="xygrid"
       id="grid2985"
       empspacing="5"
       visible="true"
       enabled="true"
       snapvisiblegridlinesonly="true" />
  </sodipodi:namedview>
  <metadata
     id="metadata7">
    <rdf:RDF>
      <cc:Work
         rdf:about="">
        <dc:format>image/svg+xml</dc:format>
        <dc:type
           rdf:resource="http://purl.org/dc/dcmitype/StillImage" />
        <dc:title></dc:title>
      </cc:Work>
    </rdf:RDF>
  </metadata>
  <g
     inkscape:label="Layer 1"
     inkscape:groupmode="layer"
     id="layer1"
     transform="translate(0,-852.36218)">
    <path
       inkscape:transform-center-y="2.5442195"
       inkscape:transform-center-x="0.19546989"
       transform="matrix(2.5545127,0,0,2.5545127,72.680678,877.13823)"
       d="M 35.714287,58.214288 19.083051,47.482788 12.773626,66.243231 6.9314358,47.332073 -9.9608443,57.647787 -2.2803636,39.405711 -21.851414,36.449858 -4.2420443,27.412536 -17.334353,12.568192 1.9642859,16.964286 1.4767556,-2.8227147 13.434616,12.949814 25.779985,-2.5212859 24.801851,17.247537 l 19.401733,-3.9161 -13.456448,14.515065 17.37981,9.471286 -19.638341,2.469547 z"
       inkscape:randomized="0"
       inkscape:rounded="0"
       inkscape:flatsided="false"
       sodipodi:arg2="1.2341327"
       sodipodi:arg1="0.88506682"
       sodipodi:r2="17.765839"
       sodipodi:r1="35.531677"
       sodipodi:cy="30.714287"
       sodipodi:cx="13.214286"
       sodipodi:sides="9"
       id="path5749"
       style="fill:#000000;fill-opacity:0.38020833;fill-rule:evenodd;stroke:none;filter:url(#filter5815)"
       sodipodi:type="star" />
    <path
       sodipodi:type="star"
       style="opacity:1;fill:#b6c828;fill-opacity:1;fill-rule:evenodd;stroke:#000000;stroke-width:0.31317128000000000;stroke-linecap:butt;stroke-linejoin:miter;stroke-miterlimit:4;stroke-opacity:0.47916666000000002;stroke-dasharray:none;filter:url(#filter5737)"
       id="path3912"
       sodipodi:sides="9"
       sodipodi:cx="13.214286"
       sodipodi:cy="30.714287"
       sodipodi:r1="35.531677"
       sodipodi:r2="17.765839"
       sodipodi:arg1="0.88506682"
       sodipodi:arg2="1.2341327"
       inkscape:flatsided="false"
       inkscape:rounded="0"
       inkscape:randomized="0"
       d="M 35.714287,58.214288 19.083051,47.482788 12.773626,66.243231 6.9314358,47.332073 -9.9608443,57.647787 -2.2803636,39.405711 -21.851414,36.449858 -4.2420443,27.412536 -17.334353,12.568192 1.9642859,16.964286 1.4767556,-2.8227147 13.434616,12.949814 25.779985,-2.5212859 24.801851,17.247537 l 19.401733,-3.9161 -13.456448,14.515065 17.37981,9.471286 -19.638341,2.469547 z"
       transform="matrix(2.5545127,0,0,2.5545127,66.252105,871.0668)"
       inkscape:transform-center-x="0.19546989"
       inkscape:transform-center-y="2.5442195" />
    <path
       d="m 95.162587,957.36218 a 27.581294,27.581297 0 0 1 -55.162587,0 27.581294,27.581297 0 1 1 55.162587,0 z"
       id="path4617"
       style="fill:#d3efc5;fill-opacity:1;stroke:#000000;stroke-width:1.89849591;stroke-linecap:round;stroke-linejoin:miter;stroke-miterlimit:4;stroke-opacity:0.62745098;stroke-dasharray:none;filter:url(#filter4619)"
       inkscape:connector-curvature="0"
       transform="matrix(1.3165339,0,0,1.3165339,11.02693,-311.25262)" />
  </g>
</svg>
