<?xml version="1.0" encoding="UTF-8" standalone="no"?>
<!-- Created with Inkscape (http://www.inkscape.org/) -->

<svg
   xmlns:dc="http://purl.org/dc/elements/1.1/"
   xmlns:cc="http://creativecommons.org/ns#"
   xmlns:rdf="http://www.w3.org/1999/02/22-rdf-syntax-ns#"
   xmlns:svg="http://www.w3.org/2000/svg"
   xmlns="http://www.w3.org/2000/svg"
   xmlns:xlink="http://www.w3.org/1999/xlink"
   xmlns:sodipodi="http://sodipodi.sourceforge.net/DTD/sodipodi-0.dtd"
   xmlns:inkscape="http://www.inkscape.org/namespaces/inkscape"
   version="1.1"
   width="200"
   height="200"
   id="svg2"
   inkscape:version="0.48.3.1 r9886"
   sodipodi:docname="dublicate.svg">
  <sodipodi:namedview
     pagecolor="#ffffff"
     bordercolor="#666666"
     borderopacity="1"
     objecttolerance="10"
     gridtolerance="10"
     guidetolerance="10"
     inkscape:pageopacity="0"
     inkscape:pageshadow="2"
     inkscape:window-width="1596"
     inkscape:window-height="982"
     id="namedview3368"
     showgrid="true"
     inkscape:zoom="2.8"
     inkscape:cx="99.035466"
     inkscape:cy="105.38518"
     inkscape:window-x="182"
     inkscape:window-y="31"
     inkscape:window-maximized="0"
     inkscape:current-layer="svg2"
     inkscape:snap-global="false">
    <inkscape:grid
       type="xygrid"
       id="grid4671" />
  </sodipodi:namedview>
  <defs
     id="defs4">
    <linearGradient
       id="linearGradient3759">
      <stop
         style="stop-color:#ede684;stop-opacity:1;"
         offset="0"
         id="stop3761" />
      <stop
         style="stop-color:#d5eec2;stop-opacity:1;"
         offset="1"
         id="stop3763" />
    </linearGradient>
    <linearGradient
       id="linearGradient3831">
      <stop
         id="stop3833"
         style="stop-color:#f0f0f0;stop-opacity:1;"
         offset="0" />
      <stop
         id="stop3835"
         style="stop-color:#a0a0a0;stop-opacity:1;"
         offset="1" />
    </linearGradient>
    <linearGradient
       x1="4.5"
       y1="957.36218"
       x2="170.5"
       y2="957.36218"
       id="linearGradient3837"
       xlink:href="#linearGradient3831"
       gradientUnits="userSpaceOnUse" />
    <linearGradient
       inkscape:collect="always"
       xlink:href="#linearGradient3759"
       id="linearGradient3765"
       x1="8.0249062"
       y1="100"
       x2="130.15691"
       y2="100"
       gradientUnits="userSpaceOnUse"
       gradientTransform="matrix(0.49999997,0.8660254,-0.8660254,0.49999997,153.43002,-7.5780793)" />
    <filter
       id="filter4003"
       inkscape:label="Darken edges"
       inkscape:menu="Shadows and Glows"
       inkscape:menu-tooltip="Darken the edges with an inner blur"
       color-interpolation-filters="sRGB">
      <feGaussianBlur
         id="feGaussianBlur4005"
         result="result6"
         stdDeviation="1.5" />
      <feComposite
         id="feComposite4007"
         in2="result6"
         operator="atop"
         in="SourceGraphic"
         result="result8" />
      <feComposite
         id="feComposite4009"
         in2="SourceAlpha"
         in="result8"
         operator="atop"
         result="result9" />
    </filter>
    <filter
       inkscape:collect="always"
       id="filter4433">
      <feGaussianBlur
         inkscape:collect="always"
         stdDeviation="3.1111111"
         id="feGaussianBlur4435" />
    </filter>
    <filter
       id="filter4557"
       style="color-interpolation-filters:sRGB;"
       inkscape:label="Drop Shadow">
      <feFlood
         id="feFlood4559"
         flood-opacity="1"
         flood-color="rgb(255,255,255)"
         result="flood" />
      <feComposite
         in2="SourceGraphic"
         id="feComposite4561"
         in="flood"
         operator="in"
         result="composite1" />
      <feGaussianBlur
         id="feGaussianBlur4563"
         in="composite"
         stdDeviation="2"
         result="blur" />
      <feOffset
         id="feOffset4565"
         dx="1"
         dy="1"
         result="offset" />
      <feComposite
         in2="offset"
         id="feComposite4567"
         in="SourceGraphic"
         operator="over"
         result="composite2" />
    </filter>
    <filter
       id="filter4003-8"
       inkscape:label="Smooth edges"
       inkscape:menu="Morphology"
       inkscape:menu-tooltip="Smooth the outside of shapes and pictures without altering their contents"
       color-interpolation-filters="sRGB">
      <feGaussianBlur
         id="feGaussianBlur4005-3"
         result="result6"
         stdDeviation="1.5" />
      <feComposite
         id="feComposite4007-3"
         in2="result6"
         operator="atop"
         in="SourceGraphic"
         result="result8" />
      <feComposite
         id="feComposite4009-0"
         in2="SourceAlpha"
         in="result8"
         operator="atop"
         result="fbSourceGraphic" />
      <feColorMatrix
         result="fbSourceGraphicAlpha"
         in="fbSourceGraphic"
         values="0 0 0 -1 0 0 0 0 -1 0 0 0 0 -1 0 0 0 0 1 0"
         id="feColorMatrix6060" />
      <feGaussianBlur
         id="feGaussianBlur6062"
         stdDeviation="3"
         result="result1"
         in="fbSourceGraphic" />
      <feComposite
         id="feComposite6064"
         in2="fbSourceGraphic"
         operator="arithmetic"
         k2="2"
         k4="-1"
         in="result1"
         result="result2" />
      <feColorMatrix
         id="feColorMatrix6066"
         values="0 0 0 0 0 0 1 0 0 0 0 0 1 0 0 0 0 0 8 -6 "
         result="result3" />
      <feComposite
         id="feComposite6068"
         in2="result3"
         in="fbSourceGraphic"
         operator="in" />
    </filter>
    <filter
       color-interpolation-filters="sRGB"
       inkscape:collect="always"
       id="filter3777-3">
      <feGaussianBlur
         inkscape:collect="always"
         stdDeviation="3.8000003"
         id="feGaussianBlur3779-1" />
    </filter>
    <filter
       id="filter3811"
       inkscape:label="Smooth edges"
       inkscape:menu="Morphology"
       inkscape:menu-tooltip="Smooth the outside of shapes and pictures without altering their contents"
       color-interpolation-filters="sRGB">
      <feGaussianBlur
         id="feGaussianBlur3813"
         stdDeviation="3"
         result="result1" />
      <feComposite
         id="feComposite3815"
         in2="SourceGraphic"
         operator="arithmetic"
         k2="2"
         k4="-1"
         in="result1"
         result="result2" />
      <feColorMatrix
         id="feColorMatrix3817"
         values="0 0 0 0 0 0 1 0 0 0 0 0 1 0 0 0 0 0 8 -6 "
         result="result3" />
      <feComposite
         id="feComposite3819"
         in2="result3"
         in="SourceGraphic"
         operator="in" />
    </filter>
  </defs>
  <metadata
     id="metadata7">
    <rdf:RDF>
      <cc:Work
         rdf:about="">
        <dc:format>image/svg+xml</dc:format>
        <dc:type
           rdf:resource="http://purl.org/dc/dcmitype/StillImage" />
        <dc:title />
      </cc:Work>
    </rdf:RDF>
  </metadata>
  <rect
     transform="matrix(1.5839797,0,0,1.459698,44.196342,82.98577)"
     style="color:#000000;fill:#000000;fill-opacity:0.47058824;fill-rule:nonzero;stroke:#c3c3c3;stroke-width:0.5;stroke-linecap:butt;stroke-linejoin:round;stroke-miterlimit:4;stroke-opacity:1;stroke-dasharray:none;stroke-dashoffset:0;marker:none;visibility:visible;display:inline;overflow:visible;filter:url(#filter3777-3);enable-background:accumulate"
     id="rect6116"
     width="80"
     height="55"
     x="15"
     y="20" />
  <rect
     y="20"
     x="15"
     height="55"
     width="80"
     id="rect6070"
     style="color:#000000;fill:#000000;fill-opacity:0.47058824;fill-rule:nonzero;stroke:#c3c3c3;stroke-width:0.5;stroke-linecap:butt;stroke-linejoin:round;stroke-miterlimit:4;stroke-opacity:1;stroke-dasharray:none;stroke-dashoffset:0;marker:none;visibility:visible;display:inline;overflow:visible;filter:url(#filter3777-3);enable-background:accumulate"
     transform="matrix(1.5839797,0,0,1.459698,-8.6608005,-11.657087)" />
  <rect
     transform="matrix(1.7883665,0,0,1.7883665,0.64027186,1.8387607)"
     y="1.4285715"
     x="1.4285711"
     height="55"
     width="80"
     id="rect3789"
     style="color:#000000;fill:#000000;fill-opacity:1;fill-rule:nonzero;stroke:#000000;stroke-width:0.5;stroke-linecap:butt;stroke-linejoin:round;stroke-miterlimit:4;stroke-opacity:1;stroke-dasharray:none;stroke-dashoffset:0;marker:none;visibility:visible;display:inline;overflow:visible;filter:url(#filter3811);enable-background:accumulate" />
  <rect
     style="color:#000000;fill:#b6c828;fill-opacity:1;fill-rule:nonzero;stroke:#c3c3c3;stroke-width:0.5;stroke-linecap:butt;stroke-linejoin:round;stroke-miterlimit:4;stroke-opacity:1;stroke-dasharray:none;stroke-dashoffset:0;marker:none;visibility:visible;display:inline;overflow:visible;filter:url(#filter4003-8);enable-background:accumulate"
     id="rect5261"
     width="80"
     height="55"
     x="1.4285711"
     y="1.4285715"
     transform="matrix(1.7741174,0,0,1.7741174,0.810698,2.0723946)" />
  <rect
     style="color:#000000;fill:#000000;fill-opacity:1;fill-rule:nonzero;stroke:#000000;stroke-width:0.5;stroke-linecap:butt;stroke-linejoin:round;stroke-miterlimit:4;stroke-opacity:1;stroke-dasharray:none;stroke-dashoffset:0;marker:none;visibility:visible;display:inline;overflow:visible;filter:url(#filter3811);enable-background:accumulate"
     id="rect3821"
     width="80"
     height="55"
     x="1.4285711"
     y="1.4285715"
     transform="matrix(1.7883665,0,0,1.7883665,50.997415,95.053046)" />
  <rect
     transform="matrix(1.7741174,0,0,1.7741174,51.167841,95.28668)"
     y="1.4285715"
     x="1.4285711"
     height="55"
     width="80"
     id="rect6114"
     style="color:#000000;fill:#b6c828;fill-opacity:1;fill-rule:nonzero;stroke:#c3c3c3;stroke-width:0.5;stroke-linecap:butt;stroke-linejoin:round;stroke-miterlimit:4;stroke-opacity:1;stroke-dasharray:none;stroke-dashoffset:0;marker:none;visibility:visible;display:inline;overflow:visible;filter:url(#filter4003-8);enable-background:accumulate" />
  <path
     d="m -144.12338,28.571421 0,-29.9999967 94.545457,0 -3.63636,-24.9999963 29.09091,39.999993 -29.09091,40 3.63636,-25 c 0,0 -94.545457,0 -94.545457,0 z"
     id="path4413"
     style="fill:#000000;fill-opacity:0.47058824;stroke:#6c7962;stroke-width:0;stroke-linecap:square;stroke-linejoin:round;stroke-miterlimit:4;stroke-opacity:0.94117647;stroke-dasharray:none;filter:url(#filter4433)"
     inkscape:connector-curvature="0"
     transform="matrix(0.49999999,0.86602541,-0.86602541,0.49999999,159.97064,172.7279)" />
  <path
     inkscape:connector-curvature="0"
     style="fill:url(#linearGradient3765);fill-opacity:1;stroke:#6c7962;stroke-width:0;stroke-linecap:square;stroke-linejoin:round;stroke-miterlimit:4;stroke-opacity:0.94117647;stroke-dasharray:none"
     id="path2989"
     d="m 58.38255,57.794883 25.980761,-14.999993 47.272729,81.87876 19.83246,-15.64918 -20.09557,45.19347 -49.18646,-5.19347 23.46881,-9.35082 c 0,0 -47.27273,-81.878767 -47.27273,-81.878767 z" />
</svg>
