<?xml version="1.0" encoding="UTF-8" standalone="no"?>
<!-- Created with Inkscape (http://www.inkscape.org/) -->

<svg
   xmlns:osb="http://www.openswatchbook.org/uri/2009/osb"
   xmlns:dc="http://purl.org/dc/elements/1.1/"
   xmlns:cc="http://creativecommons.org/ns#"
   xmlns:rdf="http://www.w3.org/1999/02/22-rdf-syntax-ns#"
   xmlns:svg="http://www.w3.org/2000/svg"
   xmlns="http://www.w3.org/2000/svg"
   xmlns:xlink="http://www.w3.org/1999/xlink"
   xmlns:sodipodi="http://sodipodi.sourceforge.net/DTD/sodipodi-0.dtd"
   xmlns:inkscape="http://www.inkscape.org/namespaces/inkscape"
   width="200"
   height="200"
   id="svg3033"
   version="1.1"
   inkscape:version="0.48.3.1 r9886"
   sodipodi:docname="trash_4.svg">
  <defs
     id="defs3035">
    <linearGradient
       id="linearGradient8743"
       osb:paint="gradient">
      <stop
         style="stop-color:#000000;stop-opacity:1;"
         offset="0"
         id="stop8745" />
      <stop
         style="stop-color:#000000;stop-opacity:0;"
         offset="1"
         id="stop8747" />
    </linearGradient>
    <linearGradient
       id="linearGradient6302">
      <stop
         style="stop-color:#000000;stop-opacity:1;"
         offset="0"
         id="stop6304" />
      <stop
         style="stop-color:#000000;stop-opacity:0.47058824;"
         offset="1"
         id="stop6306" />
    </linearGradient>
    <filter
       id="filter4093"
       inkscape:label="Glow"
       inkscape:menu="Shadows and Glows"
       inkscape:menu-tooltip="Glow of object's own color at the edges"
       color-interpolation-filters="sRGB">
      <feGaussianBlur
         id="feGaussianBlur4095"
         stdDeviation="5"
         result="result91" />
      <feComposite
         id="feComposite4097"
         in2="result91"
         in="SourceGraphic"
         operator="over" />
    </filter>
    <filter
       id="filter4619"
       inkscape:label="Inner Glow"
       inkscape:menu="Shadows and Glows"
       inkscape:menu-tooltip="Adds a colorizable glow inside"
       color-interpolation-filters="sRGB">
      <feGaussianBlur
         id="feGaussianBlur4621"
         stdDeviation="10"
         result="result8" />
      <feComposite
         id="feComposite4623"
         in2="result8"
         result="result6"
         in="SourceGraphic"
         operator="in" />
      <feComposite
         id="feComposite4625"
         in2="result6"
         operator="in"
         result="result11" />
      <feFlood
         id="feFlood4627"
         result="result10"
         in="result11"
         flood-opacity="1"
         flood-color="rgb(255,222,85)" />
      <feBlend
         id="feBlend4629"
         in2="result10"
         mode="normal"
         in="result11"
         result="result12" />
      <feComposite
         id="feComposite4631"
         in2="SourceGraphic"
         result="result2"
         operator="in"
         in="result12" />
    </filter>
    <radialGradient
       inkscape:collect="always"
       xlink:href="#linearGradient6302"
       id="radialGradient6312"
       cx="75"
       cy="957.36218"
       fx="75"
       fy="957.36218"
       r="22.666672"
       gradientTransform="translate(0,-2.7453764e-4)"
       gradientUnits="userSpaceOnUse" />
    <filter
       id="filter7287"
       inkscape:menu-tooltip="In and out glow with a possible offset and colorizable flood"
       inkscape:menu="Shadows and Glows"
       inkscape:label="Cutout Glow"
       color-interpolation-filters="sRGB">
      <feOffset
         id="feOffset7289"
         dy="3"
         dx="3" />
      <feGaussianBlur
         id="feGaussianBlur7291"
         result="result8"
         stdDeviation="3" />
      <feFlood
         id="feFlood7293"
         flood-color="rgb(0,0,0)"
         flood-opacity="1"
         in="result8"
         result="result10" />
      <feComposite
         id="feComposite7295"
         in2="SourceGraphic"
         operator="in"
         in="result10"
         result="result9" />
      <feBlend
         id="feBlend7297"
         in2="result9"
         mode="normal"
         in="result8" />
    </filter>
    <filter
       id="filter8849"
       inkscape:label="Fuzzy Glow"
       inkscape:menu="Shadows and Glows"
       inkscape:menu-tooltip="Overlays a semi-transparent shifted copy to a blurred one"
       color-interpolation-filters="sRGB">
      <feOffset
         id="feOffset8851"
         dx="4"
         dy="4"
         result="result11"
         in="SourceGraphic" />
      <feGaussianBlur
         id="feGaussianBlur8853"
         stdDeviation="4"
         result="result8" />
      <feComposite
         id="feComposite8855"
         in2="result8"
         result="result9"
         in="SourceGraphic"
         operator="in" />
      <feBlend
         id="feBlend8857"
         in2="result8"
         in="result9"
         mode="darken" />
    </filter>
    <filter
       inkscape:collect="always"
       id="filter4082">
      <feGaussianBlur
         inkscape:collect="always"
         stdDeviation="4.5750004"
         id="feGaussianBlur4084" />
    </filter>
  </defs>
  <sodipodi:namedview
     id="base"
     pagecolor="#ffffff"
     bordercolor="#666666"
     borderopacity="1.0"
     inkscape:pageopacity="0.0"
     inkscape:pageshadow="2"
     inkscape:zoom="1.979899"
     inkscape:cx="124.66207"
     inkscape:cy="79.114272"
     inkscape:document-units="px"
     inkscape:current-layer="layer1"
     showgrid="true"
     inkscape:window-width="866"
     inkscape:window-height="773"
     inkscape:window-x="72"
     inkscape:window-y="137"
     inkscape:window-maximized="0"
     inkscape:snap-global="false">
    <inkscape:grid
       type="xygrid"
       id="grid3041"
       empspacing="5"
       visible="true"
       enabled="true"
       snapvisiblegridlinesonly="true" />
  </sodipodi:namedview>
  <metadata
     id="metadata3038">
    <rdf:RDF>
      <cc:Work
         rdf:about="">
        <dc:format>image/svg+xml</dc:format>
        <dc:type
           rdf:resource="http://purl.org/dc/dcmitype/StillImage" />
        <dc:title></dc:title>
      </cc:Work>
    </rdf:RDF>
  </metadata>
  <g
     inkscape:label="Layer 1"
     inkscape:groupmode="layer"
     id="layer1"
     transform="translate(0,-852.36218)">
    <path
       style="opacity:0.6;fill:#b6c828;fill-opacity:1;stroke:none;filter:url(#filter7287)"
       d="m 50,882.36218 125,0 -40,15 -120,0"
       id="path6344"
       inkscape:connector-curvature="0"
       transform="matrix(1.0204452,0,0,1.0597829,0.02199337,-54.09134)" />
    <path
       style="fill:#b6c828;fill-opacity:1;stroke:#969696;stroke-width:0.92074484;stroke-miterlimit:4;stroke-opacity:1;stroke-dasharray:none"
       d="M 29.906666,1027.7315 C 29.72731,1027.1436 14.987109,898.25113 15,897.38338 c 0.0092,-0.61275 3.118364,-0.6462 60.074069,-0.6462 l 60.064471,0 -0.18938,1.38472 c -0.10415,0.76159 -2.34715,29.9653 -4.98443,64.89712 -2.63728,34.9318 -4.87142,63.88628 -4.96473,64.34318 l -0.16967,0.8308 -47.39142,0 c -37.593133,0 -47.420534,-0.095 -47.532244,-0.4615 z"
       id="path3900"
       inkscape:connector-curvature="0"
       sodipodi:nodetypes="ccsccsscsc" />
    <path
       style="fill:#b6c828;fill-opacity:1;stroke:#969696;stroke-width:0.93960452;stroke-miterlimit:4;stroke-opacity:1;stroke-dasharray:none"
       d="m 125.31068,1025.6155 c 0.008,-2.0001 9.86768,-128.74907 10.0307,-128.86849 0.65152,-0.47725 39.57502,-14.6022 39.65862,-14.38483 0.16318,0.42426 -15.18253,128.80822 -15.51992,129.84152 -0.24554,0.7518 -2.8018,1.9217 -17.13011,7.8395 -9.26283,3.8258 -16.82399,7.9028 -16.87975,7.9028 -0.0558,0 -0.16233,-1.5696 -0.15943,-2.3305 l 0,0 z"
       id="path3904"
       inkscape:connector-curvature="0"
       sodipodi:nodetypes="ccccssccc" />
    <path
       d="m 95.162587,957.36218 a 27.581294,27.581297 0 0 1 -55.162587,0 27.581294,27.581297 0 1 1 55.162587,0 z"
       id="path4617"
       style="fill:#d3efc5;fill-opacity:1;stroke:#000000;stroke-width:1.89849591;stroke-linecap:round;stroke-linejoin:miter;stroke-miterlimit:4;stroke-opacity:0.62745098;stroke-dasharray:none;filter:url(#filter4619)"
       inkscape:connector-curvature="0"
       transform="matrix(1.4502584,0,0,1.4502584,-23.010341,-431.06036)" />
    <path
       id="path3960"
       style="fill:none;stroke:url(#radialGradient6312);stroke-width:5.33333444999999973;stroke-linecap:round;stroke-linejoin:miter;stroke-miterlimit:4;stroke-opacity:1;stroke-dasharray:none"
       d="M 95,937.36218 54.999993,977.3622 m 0,-40.00002 L 95,977.3622"
       inkscape:connector-curvature="0" />
    <path
       style="fill:#ffff00;fill-opacity:0;fill-rule:evenodd;stroke:none;stroke-width:0.89285713000000000;stroke-linecap:round;stroke-linejoin:round;stroke-miterlimit:4;stroke-opacity:1;stroke-dasharray:none"
       d="m 36.419752,37.405927 14.103323,-6.061323 58.133805,0.09035 58.1338,0.09035 -15.98712,5.987005 -15.98713,5.987004 -56.25,-0.01603 -56.25,-0.01603 14.103322,-6.061324 z"
       id="path6328"
       inkscape:connector-curvature="0"
       transform="translate(0,852.36218)" />
    <rect
       style="fill:#ffff72;fill-opacity:0;fill-rule:evenodd;stroke:none"
       id="rect6332"
       width="90"
       height="20"
       x="20"
       y="0"
       transform="translate(0,852.36218)" />
    <path
       sodipodi:nodetypes="ccccccccccc"
       inkscape:connector-curvature="0"
       d="m 16.785706,897.71933 34.999998,-15 125.000026,0 m -50,144.99997 -95.000026,0 -14.999998,-129.99997 120.000024,0 -10,129.99997 35,-15 15,-129.99997 -40,15"
       style="fill:#dfdfdf;fill-opacity:0;stroke:#000000;stroke-width:2;stroke-linecap:butt;stroke-linejoin:miter;stroke-miterlimit:4;stroke-opacity:1;stroke-dasharray:none;filter:url(#filter4082)"
       id="path4379" />
  </g>
</svg>
